…
    ## New names:
    ## Rows: 100 Columns: 13
    ## ── Column specification
    ## ──────────────────────────────────────────────────────── Delimiter: "," chr
    ## (9): Movie, Director, Writer1, Writer2, Star1, Star2, MovieRating, RunTi... dbl
    ## (3): ...1, Rating, Released num (1): PopularityScore
    ## ℹ Use `spec()` to retrieve the full column specification for this data. ℹ
    ## Specify the column types or set `show_col_types = FALSE` to quiet this message.
    ## • `` -> `...1`

``` r
horror
```

    ## # A tibble: 100 × 13
    ##     ...1 Movie  Rating Released Director Writer1 Writer2 Star1 Star2 MovieRating
    ##    <dbl> <chr>   <dbl>    <dbl> <chr>    <chr>   <chr>   <chr> <chr> <chr>      
    ##  1     0 Hallo…    7.7     1978 John Ca… John C… Debra … Dona… Jami… R          
    ##  2     1 The T…    7.4     1974 Tobe Ho… Kim He… Tobe H… Mari… Edwi… R          
    ##  3     2 The E…    7.4     1981 Sam Rai… Sam Ra… <NA>    Bruc… Elle… NC-17      
    ##  4     3 Tremo…    7.2     1990 Ron Und… S.S. W… Brent … Kevi… Fred… PG-13      
    ##  5     4 Frida…    6.4     1980 Sean S.… Victor… Ron Ku… Bets… Adri… R          
    ##  6     5 The B…    6.5     1999 Daniel … Daniel… Eduard… Heat… Mich… R          
    ##  7     6 Sleep…    6.2     1983 Robert … Robert… <NA>    Feli… Jona… R          
    ##  8     7 Kille…    6.2     1988 Stephen… Charle… Stephe… Gran… Suza… PG-13      
    ##  9     8 Night…    7.8     1968 George … John A… George… Duan… Judi… R          
    ## 10     9 Frida…    6.1     1981 Steve M… Ron Ku… Victor… Bets… Amy … R          
    ## # ℹ 90 more rows
    ## # ℹ 3 more variables: RunTime <chr>, Synopsis <chr>, PopularityScore <dbl>
…
I thought it would be interesting to pull directors writers and stars.
So we do some basic counts to see if we can identify creative
professionals that continuously appear in different titles.

``` r
# Most directors only have one film in this list, but a select few have 2 or more.

horror %>% 
  count(Director) %>%
  arrange(desc(n))
```

    ## # A tibble: 88 × 2
    ##    Director                   n
    ##    <chr>                  <int>
    ##  1 Herschell Gordon Lewis     3
    ##  2 Wes Craven                 3
    ##  3 Andrew Jones               2
    ##  4 Bruno Mattei               2
    ##  5 Edward D. Wood Jr.         2
    ##  6 James Nguyen               2
    ##  7 Mark Polonia               2
    ##  8 Roger Corman               2
    ##  9 Tobe Hooper                2
    ## 10 Umberto Lenzi              2
    ## # ℹ 78 more rows

``` r
#How many times do actors appear in these movies? 
#Most are unique actors in these movies, however, a few show up in 2 titles. 

horror %>% 
  #Since we have 2 columns of Stars (Star1 and Star2) Let's make this data frame longer to include them all in one column 
  pivot_longer(Star1:Star2, names_to = "Star", values_to = "Actor") %>% 
  count(Actor) %>% 
  arrange(desc(n))
```

    ## # A tibble: 195 × 2
    ##    Actor              n
    ##    <chr>          <int>
    ##  1 Alan Bagh          2
    ##  2 Betsy Palmer       2
    ##  3 Robert Houston     2
    ##  4 Whitney Moore      2
    ##  5 William Kerwin     2
    ##  6 Adan Canto         1
    ##  7 Adrian Zmed        1
    ##  8 Adrienne King      1
    ##  9 Alicia Sanz        1
    ## 10 Allison Hayes      1
    ## # ℹ 185 more rows

``` r
#How many times does a writer appear in this data set? 
#The most prevalent writer in this data set is Wes Craven, unsurprisingly!

horror %>% 
  pivot_longer(Writer1:Writer2, names_to = "Writer", values_to = "Names") %>% 
  #remove some missing values because IMDB does not always specify a second writer, or there is none. 
  filter(!is.na(Names)) %>% 
  count(Names) %>% 
  arrange(desc(n))
```

    ## # A tibble: 155 × 2
    ##    Names                  n
    ##    <chr>              <int>
    ##  1 Wes Craven             3
    ##  2 Claudio Fragasso       2
    ##  3 Edward D. Wood Jr.     2
    ##  4 James Nguyen           2
    ##  5 John A. Russo          2
    ##  6 Ron Kurz               2
    ##  7 Victor Miller          2
    ##  8 Adam Simon             1
    ##  9 Al Ramrus              1
    ## 10 Albert Lawrence        1
    ## # ℹ 145 more rows
…
``` r
#How many releases are there by year? 

#The year with the most B-Horror titles released was 1981

horror %>% 
  count(Released) %>% 
  arrange(desc(n))
```

    ## # A tibble: 48 × 2
    ##    Released     n
    ##       <dbl> <int>
    ##  1     1981     9
    ##  2     1980     6
    ##  3     1984     6
    ##  4     2013     4
    ##  5     2022     4
    ##  6     1982     3
    ##  7     1983     3
    ##  8     1987     3
    ##  9     1990     3
    ## 10     1993     3
    ## # ℹ 38 more rows
…
The remaining sections area all about text analysis. I haven’t tried my
hand at text mining / text analysis so we will be digging into the user
submitted synopsis for the 100 titles we pulled!

This sections is all about preprocessing using the quanteda package.

``` r
horror
```

    ## # A tibble: 100 × 15
    ##     ...1 Movie  Rating Released Director Writer1 Writer2 Star1 Star2 MovieRating
    ##    <dbl> <chr>   <dbl>    <dbl> <chr>    <chr>   <chr>   <chr> <chr> <chr>      
    ##  1     0 Hallo…    7.7     1978 John Ca… John C… Debra … Dona… Jami… R          
    ##  2     1 The T…    7.4     1974 Tobe Ho… Kim He… Tobe H… Mari… Edwi… R          
    ##  3     2 The E…    7.4     1981 Sam Rai… Sam Ra… <NA>    Bruc… Elle… NC-17      
    ##  4     3 Tremo…    7.2     1990 Ron Und… S.S. W… Brent … Kevi… Fred… PG-13      
    ##  5     4 Frida…    6.4     1980 Sean S.… Victor… Ron Ku… Bets… Adri… R          
    ##  6     5 The B…    6.5     1999 Daniel … Daniel… Eduard… Heat… Mich… R          
    ##  7     6 Sleep…    6.2     1983 Robert … Robert… <NA>    Feli… Jona… R          
    ##  8     7 Kille…    6.2     1988 Stephen… Charle… Stephe… Gran… Suza… PG-13      
    ##  9     8 Night…    7.8     1968 George … John A… George… Duan… Judi… R          
    ## 10     9 Frida…    6.1     1981 Steve M… Ron Ku… Victor… Bets… Amy … R          
    ## # ℹ 90 more rows
    ## # ℹ 5 more variables: RunTime <chr>, Synopsis <chr>, PopularityScore <dbl>,
    ## #   runTimeMins <dbl>, Decade <dbl>
…
